# Blender MTL File: 'field_maps.blend'
# Material Count: 3

newmtl barrel
Ns 225.000000
Ka 1.000000 1.000000 1.000000
Kd 0.800000 0.800000 0.800000
Ks 0.500000 0.500000 0.500000
Ke 0.000000 0.000000 0.000000
Ni 1.450000
d 1.000000
illum 2
map_Kd C:\\Users\\Steam\\Downloads\\TexturesCom_Barrels0036_2_seamless_S.jpg

newmtl fence
Ns 225.000000
Ka 1.000000 1.000000 1.000000
Kd 0.800000 0.800000 0.800000
Ks 0.500000 0.500000 0.500000
Ke 0.000000 0.000000 0.000000
Ni 1.450000
d 1.000000
illum 2
map_Kd C:\\Users\\Steam\\Downloads\\TexturesCom_WoodPlanksPainted0312_1_seamless_S.jpg

newmtl ground
Ns 225.000000
Ka 1.000000 1.000000 1.000000
Kd 0.800000 0.800000 0.800000
Ks 0.500000 0.500000 0.500000
Ke 0.000000 0.000000 0.000000
Ni 1.450000
d 1.000000
illum 2
map_Kd C:\\Users\\Steam\\Downloads\\TexturesCom_Grass0153_1_seamless_S.jpg
